[{
	"id": "17",
	"name": "code",
	"label": "Technologies",
	"description": "Backend & Mostly Frontend webdevelopment + with the love of effect coding.",
	"body": "<header><h1>Webdevelopment skills</h1></header>\r\n\t\t\t\t\t<ul>\r\n\t\t\t\t\t\t<li>OOP Programming, native PHP5 or Frameworks like the Japan Yii</li>\r\n\t\t\t\t\t\t<li>HTML 5, CSS3, -webkit, WebGL, Canvas</li>\r\n\t\t\t\t\t\t<li>Native Javascript && JS Libraries: JQuery, MooTools, Modernizr etc...</li>\r\n\t\t\t\t\t\t<li>SEO, Semantic web build, Minify</li>\r\n\t\t\t\t\t\t<li>MySQL or NoSQL technologies, currently with REDIS key-values store for BigData</li>\r\n\t\t\t\t\t\t<li>Version Control Systems with SVN or Git (i prefer the last one.)</li>\r\n\t\t\t\t\t\t<li>Apache, NGINX</li>\r\n\t\t\t\t\t\t<li>Clean, well-commented coding.</li>\r\n\t\t\t\t\t\t<li>Following W3C standards.</li>\r\n\t\t\t\t\t\t<li>Cross-browser</li>\r\n\t\t\t\t\t</ul>",
	"renderPosition": "1",
	"contents": [{
		"id": "246",
		"channel": "17",
		"title": null,
		"description": null,
		"body": null,
		"image": null,
		"releaseDate": null,
		"active": "1"
	}]
}, {
	"id": "1",
	"name": "graphic",
	"label": "Graphic Design",
	"description": "From sketch to the floating point.",
	"body": "<header><h1>Featured skills</h1></header>\r\n\r\n<ul>\r\n\t\t\t\t\t\t<li>Pixel & Vector graphics with Corel Painter, Adobe Illustrator</li>\r\n\t\t\t\t\t\t<li>Graphic design with Adobe Photoshop, 3DS Max</li>\r\n\t\t\t\t\t\t<li>Video editing with Adobe Premier, After Effects, Final Cut</li>\r\n\t\t\t\t\t\t<li>Animating, keyframing with Flash (i hate it) or 3DS Max or WebKit</li>\r\n\t\t\t\t\t\t<li>Modeling with polygons</li>\r\n\t\t\t\t\t\t<li>Handdrawn graphic</li>\r\n\r\n</ul>",
	"renderPosition": "2",
	"contents": [{
		"id": "231",
		"channel": "1",
		"title": "paci",
		"description": "One of my favourite drawing method is the polygonal wireframing. ",
		"body": null,
		"image": "images/content/graphicdesign/IMG_4628.jpg",
		"releaseDate": "2013-10-25 16:31:36",
		"active": "1"
	}, {
		"id": "232",
		"channel": "1",
		"title": "Composite roar 16-INCH Print",
		"description": "Manual Chromatic Aberration or Achromatism with layer compositing. Simulating a lens to focus failure. Made from Original Material.",
		"body": null,
		"image": "images/content/graphicdesign/you_are_the_future_05x.jpg",
		"releaseDate": "2013-10-25 16:31:36",
		"active": "1"
	}, {
		"id": "233",
		"channel": "1",
		"title": "Outlines of \"L'Orphelin de Perdide\" ",
		"description": "",
		"body": null,
		"image": "images/content/graphicdesign/yrtf-graphic-01.jpg",
		"releaseDate": "2013-10-25 16:31:36",
		"active": "1"
	}, {
		"id": "234",
		"channel": "1",
		"title": "sketches for animation",
		"description": "Material and lighting techniques",
		"body": null,
		"image": "images/content/graphicdesign/yrtf-graphic-02b.jpg",
		"releaseDate": "2013-10-25 16:31:36",
		"active": "1"
	}, {
		"id": "235",
		"channel": "1",
		"title": "DiNKA'S REUSABILITY",
		"description": "Made from the \"Dinka Boy with Long Horned Bull, South Sudan\". Just for personal use. <a href=\"http://photokunst.com/admin/images/large/l_BF017DI_1228348646.jpg\" data-lightbox=\"dinkaboy\" title=\"A Dinka boy from South Sudan lavishes endless care and affection on his animals which he considers part of the family. He is named after his favored ox, his Namesake Ox, in the hope he will mature with the same strength and beauty. He believes that he and his Namesake Ox are one. In the future this animal will accompany him everywhere, even when he is courting young girls. 2006\">Original Material</a> by Carol Beckwith and Angela Fisher.",
		"body": null,
		"image": "images/content/graphicdesign/yrtf-graphic-03.jpg",
		"releaseDate": "2013-10-25 16:31:36",
		"active": "1"
	}, {
		"id": "236",
		"channel": "1",
		"title": "Puma vertex",
		"description": "When i get a good motion capture data for this bones, i will put the whole vertex data into WebGL.",
		"body": null,
		"image": "images/content/graphicdesign/yrtf-graphic-04.jpg",
		"releaseDate": "2013-10-25 16:31:36",
		"active": "1"
	}, {
		"id": "237",
		"channel": "1",
		"title": "L'Orphelin de Perdide",
		"description": "<a href=\"/images/content/graphicdesign/yrtf-graphic-01.jpg\" data-lightbox=\"OUTLINE DRAW\">HAND &amp; TABLET PEN</a>, DIGITAL-ANALOG COLOR PROFILING. INSPIRED BY KILIAN ENG, MOEBIUS &amp; LULU ROUGE'S SLOW PIGEON.",
		"body": null,
		"image": "images/content/graphicdesign/yrtf-graphic-06.jpg",
		"releaseDate": "2013-10-25 16:31:36",
		"active": "1"
	}, {
		"id": "238",
		"channel": "1",
		"title": "shampoo + water + gravity + mirroR",
		"description": "The Bathroom is an ultimate playground. I spend a lot of time with diffusion shooting, with different types of liquids.",
		"body": null,
		"image": "images/content/graphicdesign/yrtf-graphic-07.jpg",
		"releaseDate": "2013-10-25 16:31:36",
		"active": "1"
	}, {
		"id": "239",
		"channel": "1",
		"title": "Follow me down",
		"description": "Shadow Cutoff technique, inspired by UNKLE. Made from original material.",
		"body": null,
		"image": "images/content/graphicdesign/yrtf-graphic-08.jpg",
		"releaseDate": "2013-11-01 22:22:01",
		"active": "1"
	}, {
		"id": "240",
		"channel": "1",
		"title": "YOARTHFU Artwork",
		"description": "Focus Trapping on my hands, then captured from a high-resolution display.",
		"body": null,
		"image": "images/content/graphicdesign/yrtf-graphic-09.jpg",
		"releaseDate": "2013-11-01 22:28:01",
		"active": "1"
	}]
}, {
	"id": "2",
	"name": "digital",
	"label": "Creative Retouching",
	"description": "My digitalized world from own photography source.",
	"body": null,
	"renderPosition": "3",
	"contents": [{
		"id": "220",
		"channel": "2",
		"title": "FALLOUT",
		"description": "",
		"body": null,
		"image": "images/content/digitalphotography/yrtf-digital-01.jpg",
		"releaseDate": "2013-10-25 16:31:36",
		"active": "1"
	}, {
		"id": "221",
		"channel": "2",
		"title": "THE SPELL 16-inch print",
		"description": "The background flushed out by the light, caused my broken lens objective, allowing an unnatural exposure. The shards a rendered in Maya 3D, the colors are painted, and blended over the masked image.",
		"body": null,
		"image": "images/content/digitalphotography/yrtf-digital-02.jpg",
		"releaseDate": "2013-10-25 16:31:36",
		"active": "1"
	}, {
		"id": "224",
		"channel": "2",
		"title": "Follow me down print",
		"description": "Shadow Cutoff technique, inpired by UNKLE. Made from original material.",
		"body": null,
		"image": "images/content/digitalphotography/yrtf-digital-05.jpg",
		"releaseDate": "2013-10-25 16:31:36",
		"active": "1"
	}, {
		"id": "225",
		"channel": "2",
		"title": "JUNO SKIN",
		"description": "Conceptual work. A touch of brush, and pencil, with film colouring",
		"body": null,
		"image": "images/content/digitalphotography/yrtf-digital-06.jpg",
		"releaseDate": "2013-10-25 16:31:36",
		"active": "1"
	}, {
		"id": "226",
		"channel": "2",
		"title": "The Moonkween",
		"description": "",
		"body": null,
		"image": "images/content/digitalphotography/yrtf-digital-07.jpg",
		"releaseDate": "2013-10-25 16:31:36",
		"active": "1"
	}, {
		"id": "227",
		"channel": "2",
		"title": "Until we meet the sky",
		"description": "Highest precision of retouch. the whole environment changed, new volumetric lighting added to the scene.",
		"body": null,
		"image": "images/content/digitalphotography/yrtf-digital-08.jpg",
		"releaseDate": "2013-10-25 16:31:36",
		"active": "1"
	}, {
		"id": "228",
		"channel": "2",
		"title": "Wonderland",
		"description": "Montage",
		"body": null,
		"image": "images/content/digitalphotography/yrtf-digital-09.jpg",
		"releaseDate": "2013-10-25 16:31:36",
		"active": "1"
	}, {
		"id": "229",
		"channel": "2",
		"title": "I hear my heartbeat",
		"description": "Creating atmosphere with Donne Darko. The Black Rabbit model is rendered into to the background, with volumetric lights to recreate the lighting environment.",
		"body": null,
		"image": "images/content/digitalphotography/yrtf-photography-050.jpg",
		"releaseDate": "2013-10-25 16:31:36",
		"active": "1"
	}, {
		"id": "247",
		"channel": "2",
		"title": "Porcelain",
		"description": "Depth of field portrait. The full skin and the lips are retouched. The lead task was the colour ballance.",
		"body": null,
		"image": "images/content/digitalphotography/yrtf-digital-10b.jpg",
		"releaseDate": "2013-10-31 16:31:36",
		"active": "1"
	}]
}, {
	"id": "3",
	"name": "photography",
	"label": "Photography",
	"description": "Analog to Digital",
	"body": "Your life is your message to the World",
	"renderPosition": "4",
	"contents": [{
		"id": "121",
		"channel": "3",
		"title": "",
		"description": "",
		"body": null,
		"image": "images/content/photography/yrtf-photography-001.jpg",
		"releaseDate": "2013-10-25 16:31:36",
		"active": "1"
	}, {
		"id": "122",
		"channel": "3",
		"title": "",
		"description": "",
		"body": null,
		"image": "images/content/photography/yrtf-photography-004.jpg",
		"releaseDate": "2013-10-25 16:31:36",
		"active": "1"
	}, {
		"id": "123",
		"channel": "3",
		"title": "",
		"description": "",
		"body": null,
		"image": "images/content/photography/yrtf-photography-005.jpg",
		"releaseDate": "2013-10-25 16:31:36",
		"active": "1"
	}, {
		"id": "124",
		"channel": "3",
		"title": "",
		"description": "",
		"body": null,
		"image": "images/content/photography/yrtf-photography-006.jpg",
		"releaseDate": "2013-10-25 16:31:36",
		"active": "1"
	}, {
		"id": "125",
		"channel": "3",
		"title": "",
		"description": "",
		"body": null,
		"image": "images/content/photography/yrtf-photography-007.jpg",
		"releaseDate": "2013-10-25 16:31:36",
		"active": "1"
	}, {
		"id": "127",
		"channel": "3",
		"title": "",
		"description": "",
		"body": null,
		"image": "images/content/photography/yrtf-photography-009.jpg",
		"releaseDate": "2013-10-25 16:31:36",
		"active": "1"
	}, {
		"id": "128",
		"channel": "3",
		"title": "",
		"description": "",
		"body": null,
		"image": "images/content/photography/yrtf-photography-010.jpg",
		"releaseDate": "2013-10-25 16:31:36",
		"active": "1"
	}, {
		"id": "129",
		"channel": "3",
		"title": "",
		"description": "",
		"body": null,
		"image": "images/content/photography/yrtf-photography-011.jpg",
		"releaseDate": "2013-10-25 16:31:36",
		"active": "1"
	}, {
		"id": "130",
		"channel": "3",
		"title": "",
		"description": "",
		"body": null,
		"image": "images/content/photography/yrtf-photography-012.jpg",
		"releaseDate": "2013-10-25 16:31:36",
		"active": "1"
	}, {
		"id": "131",
		"channel": "3",
		"title": "",
		"description": "",
		"body": null,
		"image": "images/content/photography/yrtf-photography-013.jpg",
		"releaseDate": "2013-10-25 16:31:36",
		"active": "1"
	}, {
		"id": "132",
		"channel": "3",
		"title": "",
		"description": "",
		"body": null,
		"image": "images/content/photography/yrtf-photography-014.jpg",
		"releaseDate": "2013-10-25 16:31:36",
		"active": "1"
	}, {
		"id": "134",
		"channel": "3",
		"title": "",
		"description": "",
		"body": null,
		"image": "images/content/photography/yrtf-photography-016.jpg",
		"releaseDate": "2013-10-25 16:31:36",
		"active": "1"
	}, {
		"id": "135",
		"channel": "3",
		"title": "",
		"description": "",
		"body": null,
		"image": "images/content/photography/yrtf-photography-017.jpg",
		"releaseDate": "2013-10-25 16:31:36",
		"active": "1"
	}, {
		"id": "136",
		"channel": "3",
		"title": "",
		"description": "",
		"body": null,
		"image": "images/content/photography/yrtf-photography-018.jpg",
		"releaseDate": "2013-10-25 16:31:36",
		"active": "1"
	}, {
		"id": "137",
		"channel": "3",
		"title": "",
		"description": "",
		"body": null,
		"image": "images/content/photography/yrtf-photography-019.jpg",
		"releaseDate": "2013-10-25 16:31:36",
		"active": "1"
	}, {
		"id": "138",
		"channel": "3",
		"title": "",
		"description": "",
		"body": null,
		"image": "images/content/photography/yrtf-photography-020.jpg",
		"releaseDate": "2013-10-25 16:31:36",
		"active": "1"
	}, {
		"id": "139",
		"channel": "3",
		"title": "",
		"description": "",
		"body": null,
		"image": "images/content/photography/yrtf-photography-021.jpg",
		"releaseDate": "2013-10-25 16:31:36",
		"active": "1"
	}, {
		"id": "140",
		"channel": "3",
		"title": "",
		"description": "",
		"body": null,
		"image": "images/content/photography/yrtf-photography-022.jpg",
		"releaseDate": "2013-10-25 16:31:36",
		"active": "1"
	}, {
		"id": "142",
		"channel": "3",
		"title": "",
		"description": "",
		"body": null,
		"image": "images/content/photography/yrtf-photography-024.jpg",
		"releaseDate": "2013-10-25 16:31:36",
		"active": "1"
	}, {
		"id": "143",
		"channel": "3",
		"title": "",
		"description": "",
		"body": null,
		"image": "images/content/photography/yrtf-photography-025.jpg",
		"releaseDate": "2013-10-25 16:31:36",
		"active": "1"
	}, {
		"id": "144",
		"channel": "3",
		"title": "",
		"description": "",
		"body": null,
		"image": "images/content/photography/yrtf-photography-026.jpg",
		"releaseDate": "2013-10-25 16:31:36",
		"active": "1"
	}, {
		"id": "145",
		"channel": "3",
		"title": "",
		"description": "",
		"body": null,
		"image": "images/content/photography/yrtf-photography-028.jpg",
		"releaseDate": "2013-10-25 16:31:36",
		"active": "1"
	}, {
		"id": "147",
		"channel": "3",
		"title": "",
		"description": "",
		"body": null,
		"image": "images/content/photography/yrtf-photography-031.jpg",
		"releaseDate": "2013-10-25 16:31:36",
		"active": "1"
	}, {
		"id": "148",
		"channel": "3",
		"title": "",
		"description": "",
		"body": null,
		"image": "images/content/photography/yrtf-photography-032.jpg",
		"releaseDate": "2013-10-25 16:31:36",
		"active": "1"
	}, {
		"id": "149",
		"channel": "3",
		"title": "",
		"description": "",
		"body": null,
		"image": "images/content/photography/yrtf-photography-033.jpg",
		"releaseDate": "2013-10-25 16:31:36",
		"active": "1"
	}, {
		"id": "150",
		"channel": "3",
		"title": "",
		"description": "",
		"body": null,
		"image": "images/content/photography/yrtf-photography-034.jpg",
		"releaseDate": "2013-10-25 16:31:36",
		"active": "1"
	}, {
		"id": "151",
		"channel": "3",
		"title": "",
		"description": "",
		"body": null,
		"image": "images/content/photography/yrtf-photography-035.jpg",
		"releaseDate": "2013-10-25 16:31:36",
		"active": "1"
	}, {
		"id": "152",
		"channel": "3",
		"title": "",
		"description": "",
		"body": null,
		"image": "images/content/photography/yrtf-photography-037.jpg",
		"releaseDate": "2013-10-25 16:31:36",
		"active": "1"
	}, {
		"id": "153",
		"channel": "3",
		"title": "",
		"description": "",
		"body": null,
		"image": "images/content/photography/yrtf-photography-039.jpg",
		"releaseDate": "2013-10-25 16:31:36",
		"active": "1"
	}, {
		"id": "155",
		"channel": "3",
		"title": "",
		"description": "",
		"body": null,
		"image": "images/content/photography/yrtf-photography-041.jpg",
		"releaseDate": "2013-10-25 16:31:36",
		"active": "1"
	}, {
		"id": "156",
		"channel": "3",
		"title": "",
		"description": "",
		"body": null,
		"image": "images/content/photography/yrtf-photography-042.jpg",
		"releaseDate": "2013-10-25 16:31:36",
		"active": "1"
	}, {
		"id": "157",
		"channel": "3",
		"title": "",
		"description": "",
		"body": null,
		"image": "images/content/photography/yrtf-photography-043.jpg",
		"releaseDate": "2013-10-25 16:31:36",
		"active": "1"
	}, {
		"id": "158",
		"channel": "3",
		"title": "",
		"description": "",
		"body": null,
		"image": "images/content/photography/yrtf-photography-044.jpg",
		"releaseDate": "2013-10-25 16:31:36",
		"active": "1"
	}, {
		"id": "159",
		"channel": "3",
		"title": "",
		"description": "",
		"body": null,
		"image": "images/content/photography/yrtf-photography-045.jpg",
		"releaseDate": "2013-10-25 16:31:36",
		"active": "1"
	}, {
		"id": "160",
		"channel": "3",
		"title": "",
		"description": "",
		"body": null,
		"image": "images/content/photography/yrtf-photography-046.jpg",
		"releaseDate": "2013-10-25 16:31:36",
		"active": "1"
	}, {
		"id": "161",
		"channel": "3",
		"title": "",
		"description": "",
		"body": null,
		"image": "images/content/photography/yrtf-photography-047.jpg",
		"releaseDate": "2013-10-25 16:31:36",
		"active": "1"
	}, {
		"id": "162",
		"channel": "3",
		"title": "",
		"description": "",
		"body": null,
		"image": "images/content/photography/yrtf-photography-048.jpg",
		"releaseDate": "2013-10-25 16:31:36",
		"active": "1"
	}, {
		"id": "163",
		"channel": "3",
		"title": "",
		"description": "",
		"body": null,
		"image": "images/content/photography/yrtf-photography-049.jpg",
		"releaseDate": "2013-10-25 16:31:36",
		"active": "1"
	}, {
		"id": "164",
		"channel": "3",
		"title": "",
		"description": "",
		"body": null,
		"image": "images/content/photography/yrtf-photography-051.jpg",
		"releaseDate": "2013-10-25 16:31:36",
		"active": "1"
	}, {
		"id": "165",
		"channel": "3",
		"title": "",
		"description": "",
		"body": null,
		"image": "images/content/photography/yrtf-photography-052.jpg",
		"releaseDate": "2013-10-25 16:31:36",
		"active": "1"
	}, {
		"id": "166",
		"channel": "3",
		"title": "",
		"description": "",
		"body": null,
		"image": "images/content/photography/yrtf-photography-053.jpg",
		"releaseDate": "2013-10-25 16:31:36",
		"active": "1"
	}, {
		"id": "167",
		"channel": "3",
		"title": "",
		"description": "",
		"body": null,
		"image": "images/content/photography/yrtf-photography-057.jpg",
		"releaseDate": "2013-10-25 16:31:36",
		"active": "1"
	}, {
		"id": "168",
		"channel": "3",
		"title": "",
		"description": "",
		"body": null,
		"image": "images/content/photography/yrtf-photography-058.jpg",
		"releaseDate": "2013-10-25 16:31:36",
		"active": "1"
	}, {
		"id": "169",
		"channel": "3",
		"title": "",
		"description": "",
		"body": null,
		"image": "images/content/photography/yrtf-photography-059.jpg",
		"releaseDate": "2013-10-25 16:31:36",
		"active": "1"
	}, {
		"id": "170",
		"channel": "3",
		"title": "",
		"description": "",
		"body": null,
		"image": "images/content/photography/yrtf-photography-060.jpg",
		"releaseDate": "2013-10-25 16:31:36",
		"active": "1"
	}, {
		"id": "171",
		"channel": "3",
		"title": "",
		"description": "",
		"body": null,
		"image": "images/content/photography/yrtf-photography-061.jpg",
		"releaseDate": "2013-10-25 16:31:36",
		"active": "1"
	}, {
		"id": "172",
		"channel": "3",
		"title": "",
		"description": "",
		"body": null,
		"image": "images/content/photography/yrtf-photography-062.jpg",
		"releaseDate": "2013-10-25 16:31:36",
		"active": "1"
	}, {
		"id": "173",
		"channel": "3",
		"title": "",
		"description": "",
		"body": null,
		"image": "images/content/photography/yrtf-photography-063.jpg",
		"releaseDate": "2013-10-25 16:31:36",
		"active": "1"
	}, {
		"id": "174",
		"channel": "3",
		"title": "",
		"description": "",
		"body": null,
		"image": "images/content/photography/yrtf-photography-064.jpg",
		"releaseDate": "2013-10-25 16:31:36",
		"active": "1"
	}, {
		"id": "175",
		"channel": "3",
		"title": "",
		"description": "",
		"body": null,
		"image": "images/content/photography/yrtf-photography-065.jpg",
		"releaseDate": "2013-10-25 16:31:36",
		"active": "1"
	}, {
		"id": "176",
		"channel": "3",
		"title": "",
		"description": "",
		"body": null,
		"image": "images/content/photography/yrtf-photography-066.jpg",
		"releaseDate": "2013-10-25 16:31:36",
		"active": "1"
	}, {
		"id": "177",
		"channel": "3",
		"title": "",
		"description": "",
		"body": null,
		"image": "images/content/photography/yrtf-photography-067.jpg",
		"releaseDate": "2013-10-25 16:31:36",
		"active": "1"
	}, {
		"id": "178",
		"channel": "3",
		"title": "",
		"description": "",
		"body": null,
		"image": "images/content/photography/yrtf-photography-068.jpg",
		"releaseDate": "2013-10-25 16:31:36",
		"active": "1"
	}, {
		"id": "179",
		"channel": "3",
		"title": "",
		"description": "",
		"body": null,
		"image": "images/content/photography/yrtf-photography-069.jpg",
		"releaseDate": "2013-10-25 16:31:36",
		"active": "1"
	}, {
		"id": "180",
		"channel": "3",
		"title": "",
		"description": "",
		"body": null,
		"image": "images/content/photography/yrtf-photography-070.jpg",
		"releaseDate": "2013-10-25 16:31:36",
		"active": "1"
	}, {
		"id": "181",
		"channel": "3",
		"title": "",
		"description": "",
		"body": null,
		"image": "images/content/photography/yrtf-photography-071.jpg",
		"releaseDate": "2013-10-25 16:31:36",
		"active": "1"
	}, {
		"id": "182",
		"channel": "3",
		"title": "",
		"description": "",
		"body": null,
		"image": "images/content/photography/yrtf-photography-072.jpg",
		"releaseDate": "2013-10-25 16:31:36",
		"active": "1"
	}, {
		"id": "183",
		"channel": "3",
		"title": "",
		"description": "",
		"body": null,
		"image": "images/content/photography/yrtf-photography-073.jpg",
		"releaseDate": "2013-10-25 16:31:36",
		"active": "1"
	}, {
		"id": "184",
		"channel": "3",
		"title": "",
		"description": "",
		"body": null,
		"image": "images/content/photography/yrtf-photography-074.jpg",
		"releaseDate": "2013-10-25 16:31:36",
		"active": "1"
	}, {
		"id": "185",
		"channel": "3",
		"title": "",
		"description": "",
		"body": null,
		"image": "images/content/photography/yrtf-photography-075.jpg",
		"releaseDate": "2013-10-25 16:31:36",
		"active": "1"
	}, {
		"id": "186",
		"channel": "3",
		"title": "",
		"description": "",
		"body": null,
		"image": "images/content/photography/yrtf-photography-076.jpg",
		"releaseDate": "2013-10-25 16:31:36",
		"active": "1"
	}, {
		"id": "187",
		"channel": "3",
		"title": "",
		"description": "",
		"body": null,
		"image": "images/content/photography/yrtf-photography-077.jpg",
		"releaseDate": "2013-10-25 16:31:36",
		"active": "1"
	}, {
		"id": "188",
		"channel": "3",
		"title": "",
		"description": "",
		"body": null,
		"image": "images/content/photography/yrtf-photography-078.jpg",
		"releaseDate": "2013-10-25 16:31:36",
		"active": "1"
	}, {
		"id": "189",
		"channel": "3",
		"title": "",
		"description": "",
		"body": null,
		"image": "images/content/photography/yrtf-photography-079.jpg",
		"releaseDate": "2013-10-25 16:31:36",
		"active": "1"
	}, {
		"id": "190",
		"channel": "3",
		"title": "",
		"description": "",
		"body": null,
		"image": "images/content/photography/yrtf-photography-080.jpg",
		"releaseDate": "2013-10-25 16:31:36",
		"active": "1"
	}, {
		"id": "191",
		"channel": "3",
		"title": "",
		"description": "",
		"body": null,
		"image": "images/content/photography/yrtf-photography-081.jpg",
		"releaseDate": "2013-10-25 16:31:36",
		"active": "1"
	}, {
		"id": "192",
		"channel": "3",
		"title": "",
		"description": "",
		"body": null,
		"image": "images/content/photography/yrtf-photography-082.jpg",
		"releaseDate": "2013-10-25 16:31:36",
		"active": "1"
	}, {
		"id": "193",
		"channel": "3",
		"title": "",
		"description": "",
		"body": null,
		"image": "images/content/photography/yrtf-photography-083.jpg",
		"releaseDate": "2013-10-25 16:31:36",
		"active": "1"
	}, {
		"id": "194",
		"channel": "3",
		"title": "",
		"description": "",
		"body": null,
		"image": "images/content/photography/yrtf-photography-084.jpg",
		"releaseDate": "2013-10-25 16:31:36",
		"active": "1"
	}, {
		"id": "195",
		"channel": "3",
		"title": "",
		"description": "",
		"body": null,
		"image": "images/content/photography/yrtf-photography-086.jpg",
		"releaseDate": "2013-10-25 16:31:36",
		"active": "1"
	}, {
		"id": "197",
		"channel": "3",
		"title": "",
		"description": "",
		"body": null,
		"image": "images/content/photography/yrtf-photography-091.jpg",
		"releaseDate": "2013-10-25 16:31:36",
		"active": "1"
	}, {
		"id": "198",
		"channel": "3",
		"title": "",
		"description": "",
		"body": null,
		"image": "images/content/photography/yrtf-photography-093.jpg",
		"releaseDate": "2013-10-25 16:31:36",
		"active": "1"
	}, {
		"id": "199",
		"channel": "3",
		"title": "",
		"description": "",
		"body": null,
		"image": "images/content/photography/yrtf-photography-094.jpg",
		"releaseDate": "2013-10-25 16:31:36",
		"active": "1"
	}, {
		"id": "200",
		"channel": "3",
		"title": "",
		"description": "",
		"body": null,
		"image": "images/content/photography/yrtf-photography-095.jpg",
		"releaseDate": "2013-10-25 16:31:36",
		"active": "1"
	}, {
		"id": "204",
		"channel": "3",
		"title": "",
		"description": "",
		"body": null,
		"image": "images/content/photography/yrtf-photography-099.jpg",
		"releaseDate": "2013-10-25 16:31:36",
		"active": "1"
	}, {
		"id": "205",
		"channel": "3",
		"title": "",
		"description": "",
		"body": null,
		"image": "images/content/photography/yrtf-photography-100.jpg",
		"releaseDate": "2013-10-25 16:31:36",
		"active": "1"
	}, {
		"id": "206",
		"channel": "3",
		"title": "",
		"description": "",
		"body": null,
		"image": "images/content/photography/yrtf-photography-101.jpg",
		"releaseDate": "2013-10-25 16:31:36",
		"active": "1"
	}, {
		"id": "207",
		"channel": "3",
		"title": "",
		"description": "",
		"body": null,
		"image": "images/content/photography/yrtf-photography-102.jpg",
		"releaseDate": "2013-10-25 16:31:36",
		"active": "1"
	}, {
		"id": "208",
		"channel": "3",
		"title": "",
		"description": "",
		"body": null,
		"image": "images/content/photography/yrtf-photography-103.jpg",
		"releaseDate": "2013-10-25 16:31:36",
		"active": "1"
	}, {
		"id": "209",
		"channel": "3",
		"title": "",
		"description": "",
		"body": null,
		"image": "images/content/photography/yrtf-photography-104.jpg",
		"releaseDate": "2013-10-25 16:31:36",
		"active": "1"
	}, {
		"id": "210",
		"channel": "3",
		"title": "",
		"description": "",
		"body": null,
		"image": "images/content/photography/yrtf-photography-105.jpg",
		"releaseDate": "2013-10-25 16:31:36",
		"active": "1"
	}, {
		"id": "211",
		"channel": "3",
		"title": "",
		"description": "",
		"body": null,
		"image": "images/content/photography/yrtf-photography-106.jpg",
		"releaseDate": "2013-10-25 16:31:36",
		"active": "1"
	}, {
		"id": "213",
		"channel": "3",
		"title": "",
		"description": "",
		"body": null,
		"image": "images/content/photography/yrtf-photography-108.jpg",
		"releaseDate": "2013-10-25 16:31:36",
		"active": "1"
	}, {
		"id": "214",
		"channel": "3",
		"title": "",
		"description": "",
		"body": null,
		"image": "images/content/photography/yrtf-photography-109.jpg",
		"releaseDate": "2013-10-25 16:31:36",
		"active": "1"
	}, {
		"id": "215",
		"channel": "3",
		"title": "",
		"description": "",
		"body": null,
		"image": "images/content/photography/yrtf-photography-110.jpg",
		"releaseDate": "2013-10-25 16:31:36",
		"active": "1"
	}, {
		"id": "216",
		"channel": "3",
		"title": "",
		"description": "",
		"body": null,
		"image": "images/content/photography/yrtf-photography-111.jpg",
		"releaseDate": "2013-10-25 16:31:36",
		"active": "1"
	}, {
		"id": "217",
		"channel": "3",
		"title": "",
		"description": "",
		"body": null,
		"image": "images/content/photography/yrtf-photography-112.jpg",
		"releaseDate": "2013-10-25 16:31:36",
		"active": "1"
	}, {
		"id": "218",
		"channel": "3",
		"title": "",
		"description": "",
		"body": null,
		"image": "images/content/photography/yrtf-photography-113.jpg",
		"releaseDate": "2013-10-25 16:31:36",
		"active": "1"
	}, {
		"id": "219",
		"channel": "3",
		"title": "",
		"description": "",
		"body": null,
		"image": "images/content/photography/yrtf-photography-114.jpg",
		"releaseDate": "2013-10-25 16:31:36",
		"active": "1"
	}, {
		"id": "249",
		"channel": "3",
		"title": "",
		"description": "",
		"body": null,
		"image": "images/content/photography/yrtf-photography-115.jpg",
		"releaseDate": "2013-11-01 16:31:36",
		"active": "1"
	}]
}]